415
4775
791
8824
5605
9966
8843
6398
6919
8126
3437
3471
1238
1890
6290
9989
387
700
4102
6688
9519
7491
3953
103
5626
278
6828
251
4517
2527
9970
3017
4296
703
4347
9878
3126
7567
8798
7724
5444
7593
3534
7532
9452
8041
8138
5324
3897
4279
6317
6606
7413
80
1742
7638
7706
3975
1666
6938
2429
9077
833
2247
2362
15
1946
5709
5564
7280
4483
1227
1771
503
6629
3031
2797
3311
9504
5165
9871
2340
4742
2068
430
3120
7097
2902
9946
5875
9906
5376
4863
819
3228
930
4889
2658
9731
4109
