379
140
611
671
896
468
729
386
750
897
784
398
427
206
304
821
515
541
677
959
661
586
609
29
422
452
113
596
313
31
650
976
613
167
700
684
578
191
612
944
158
560
652
417
369
385
840
74
52
267
365
941
362
951
443
212
873
741
990
290
296
387
481
516
676
792
960
845
125
752
251
11
502
655
326
748
62
431
913
487
660
956
203
229
261
719
778
348
240
336
854
480
802
351
964
658
33
77
756
808
