1.	awk '/^1.*0$/' binaryStrings.txt
2.	awk '/.*1.*1.*1.*/' binaryStrings.txt
3.	awk '/.*0101.*/' binaryStrings.txt
4.	awk '/^..0.*/' binaryStrings.txt
5.	awk '/^0(..)*/' binaryStrings.txt
6.	awk '/^1([01]|[01]{3})([01][01])*$/' binaryStrings.txt
7.	
8.	awk '/^(1[01])*$/' binaryStrings.txt
9.	awk '/0$/' binaryStrings.txt
10.	awk '/^0*10*10*$/' binaryStrings.txt



	5
awk -F ',' '{print $3}' patientsdna

awk -F ',' '{print $4}' patientsdna

awk -F ',' '{print $3 " , " $4}' patientsdna
