379991
134003
733525
305376
422893
535907
298941
673410
270341
53076
788110
133347
997396
141964
707279
964584
863498
298805
764679
691756
846206
562275
184219
667721
493109
61804
900643
255897
646361
724702
966447
919492
321571
889629
245285
203247
28628
333618
303820
751101
976501
543124
527189
682464
888430
636299
504807
445982
165058
270616
571680
220460
712884
329192
640343
635532
627751
267914
118232
243806
809915
814585
881942
95535
907264
661024
963840
790951
469964
424923
702105
258054
558857
381599
139507
767076
366264
693027
910905
750927
569020
375077
83164
755433
993849
274009
673807
835438
907578
605377
339153
752738
452956
871217
861530
535129
894186
380146
14218
575556
