93727
46872
13100
49098
60553
47003
67120
82765
56804
93036
70601
84139
4953
13162
55242
62808
18395
79837
4653
82820
79945
4907
63842
67869
66030
26580
43941
65622
46213
19627
85943
54331
7332
25620
90324
99414
15834
83635
31079
69552
88986
95994
20016
46914
24236
2726
43080
44247
68819
91459
87113
79197
47480
68545
47363
99714
3278
22896
54627
39400
54247
14998
72021
19086
34547
75702
56266
85661
64109
32935
19878
60579
73667
88834
87490
8403
52770
15004
44849
6011
35857
1715
17070
98357
50733
66109
63636
21685
42169
28059
9799
62129
41237
57867
47329
70201
77921
5761
51887
52702
